90491002809
90703427009
91090487484
91446900054
91843185284
92141284439
92729869324
93136821069
93396651589
93780781739
94060936579
94525524034
94822176499
95089237364
95182531739
95284203604
95452460859
95815188744
95905188219
96079540304
96444484289
96704319754
97048575719
97293305324
97880491294
98137257844
98301517634
98462278509
98728339074
99046012359
99311060299
